Introduction to rKolada
…
Downloading data

If the user already has knowledge of the IDs of the KPIs and/or
municipalities they want to download, this can be done using the
function get_values(). For instance, if you want to
download all values for the KPI N00945 (“Tillfälliga
föräldrapenningdagar (VAB) som tas ut av män, andel av antal dagar (%)”)
for Sweden’s three most populous cities; Stockholm (id
"0180"), Gothenburg (Swedish: Göteborg;
"1480") and Malmö ("1280"):

#> # A tibble: 75 × 9
#>    kpi    municipality_id  year count gender status value municipality
#>    <chr>  <chr>           <int> <int> <chr>  <chr>  <dbl> <chr>       
#>  1 N00945 0180             1996     1 T      ""      NA   Stockholm   
#>  2 N00945 1280             1996     1 T      ""      NA   Malmö       
#>  3 N00945 1480             1996     1 T      ""      NA   Göteborg    
#>  4 N00945 0180             1997     1 T      ""      NA   Stockholm   
#>  5 N00945 1280             1997     1 T      ""      NA   Malmö       
#>  6 N00945 1480             1997     1 T      ""      NA   Göteborg    
#>  7 N00945 0180             1998     1 T      ""      30.4 Stockholm   
#>  8 N00945 1280             1998     1 T      ""      26.7 Malmö       
#>  9 N00945 1480             1998     1 T      ""      30.5 Göteborg    
#> 10 N00945 0180             1999     1 T      ""      30.6 Stockholm   
#> # ℹ 65 more rows
#> # ℹ 1 more variable: municipality_type <chr>
…
All metadata convenience functions have been designed with functional
piping in mind, so their first argument is always a metadata tibble.
Most of them also return a tibble of the same type

The most important family of metadata convenience functions is the
search family. Much like dplyr::filter() they
can be used to search for one or several search terms in the entire
table or in a subset of named columns:

# Search for KPIs with the term "BRP" in their description or title
kpi_filter <- kpi_df %>% kpi_search("skola", column = c("description", "title"))
kpi_filter
#> # A tibble: 901 × 13
#>    auspices description has_ou_data id    is_divided_by_gender municipality_type
#>    <chr>    <chr>       <lgl>       <chr>                <int> <chr>            
#>  1 <NA>     "Kostnadsu… FALSE       N000…                    0 K                
#>  2 <NA>     "Kostnadsu… FALSE       N000…                    0 K                
#>  3 <NA>     "Kostnadsu… FALSE       N000…                    0 K                
#>  4 T        "Avvikelse… FALSE       N000…                    0 K                
#>  5 T        "Strukturk… FALSE       N001…                    0 K                
#>  6 E        "Antal ans… FALSE       N001…                    0 K                
#>  7 E        "Antal års… FALSE       N001…                    0 K                
#>  8 T        "Kommunind… FALSE       N003…                    0 K                
#>  9 T        "Kommunind… FALSE       N003…                    0 K                
#> 10 T        "Kommunind… FALSE       N003…                    0 K                
#> # ℹ 891 more rows
#> # ℹ 7 more variables: operating_area <chr>, ou_publication_date <chr>,
#> #   perspective <chr>, prel_publication_date <chr>, publ_period <chr>,
#> #   publication_date <chr>, title <chr>

#> # A tibble: 3,312 × 3
#>    id      members       title                                                
#>    <chr>   <list>        <chr>                                                
#>  1 G114418 <df [4 × 2]>  Fyrkommunsnätverket (ovägt medel)                    
#>  2 G114419 <df [4 × 2]>  SMS - Samhällsskydd mellersta Skaraborg (ovägt medel)
#>  3 G114798 <df [4 × 2]>  4M -  Fyra Mälarstäder (ovägt medel)                 
#>  4 G114915 <df [68 × 2]> SmåKom (ovägt medel)                                 
#>  5 G116237 <df [9 × 2]>  Sjuhärad kommunalförbund (ovägt medel)               
#>  6 G116238 <df [15 × 2]> Skaraborgs kommunalförbund (ovägt medel)             
#>  7 G122469 <df [10 × 2]> Region 10 (ovägt medel)                              
#>  8 G122931 <df [5 × 2]>  3KVH (ovägt medel)                                   
#>  9 G128518 <df [11 × 2]> Familjen Helsingborg (ovägt medel)                   
#> 10 G128681 <df [12 × 2]> Stor-Malmö (ovägt medel)                             
#> # ℹ 3,302 more rows
…
KPI metadata is considerably more complex than other types of
metadata. To further assist in exploring KPI metadata the function
kpi_bind_keywords() can be used to tag data with keywords
(these are inferred from the KPI title) to classify KPIs and make them
more searchable.

# Add keywords to a KPI table
kpis_with_keywords <- kpi_filter %>% kpi_bind_keywords(n = 4)

# count keywords
kpis_with_keywords %>%
  tidyr::pivot_longer(dplyr::starts_with("keyword"), values_to = "keyword") %>%
  dplyr::count(keyword, sort = TRUE)
#> # A tibble: 417 × 2
#>    keyword            n
#>    <chr>          <int>
#>  1 elever           176
#>  2 grundskola       146
#>  3 gymnasieelever   112
#>  4 pedagogisk       112
#>  5 åk               112
#>  6 gymnasieskola    100
#>  7 förskola          91
#>  8 personal          87
#>  9 år                73
#> 10 kommunal          67
#> # ℹ 407 more rows
…
